
<svg version="1.1" id="Layer_1" xmlns="http://www.w3.org/2000/svg" xmlns:xlink="http://www.w3.org/1999/xlink" x="0px" y="0px"
	 width="15.7" height="13.1" viewBox="0 0 15.7 13.1" style="enable-background:new 0 0 15.7 13.1;" xml:space="preserve">
<style type="text/css">
	.st0{fill:none;stroke:#299BD7;stroke-width:2;stroke-linejoin:bevel;}
</style>
<g id="Component_46_9" transform="translate(15.706 12.421) rotate(180)">
	<path id="Path_1073" class="st0" d="M9.1,11.7L15,5.9L9.1,0"/>
</g>
</svg>
