<svg xmlns="http://www.w3.org/2000/svg" width="17.61" height="12.616" viewBox="0 0 17.61 12.616">
  <g id="Component_45_170" data-name="Component 45 – 170" transform="translate(0.677 0.68)">
    <path id="Path_545" data-name="Path 545" d="M-1473,1488.866l5.8,5.333,10.4-11.2" transform="translate(1473 -1483)" fill="none" stroke="#fff" stroke-linejoin="bevel" stroke-width="2"/>
  </g>
</svg>
