<?xml version="1.0" encoding="utf-8"?>
<!-- Generator: Adobe Illustrator 22.0.0, SVG Export Plug-In . SVG Version: 6.00 Build 0)  -->
<svg version="1.1" id="Layer_1" xmlns="http://www.w3.org/2000/svg" xmlns:xlink="http://www.w3.org/1999/xlink" x="0px" y="0px"
	 viewBox="0 0 13.5 26" style="enable-background:new 0 0 13.5 26;" xml:space="preserve">
<style type="text/css">
	.st0{fill:none;stroke:#ECF6FB;stroke-width:2;}
	.st1{fill:url(#Path_740_1_);stroke:#ECF6FB;stroke-width:2;}
</style>
<g id="Group_3960" transform="translate(-29 -16)">
	<line id="Line_2017" class="st0" x1="32.2" y1="17" x2="38.6" y2="17"/>
	<line id="Line_2018" class="st0" x1="29.5" y1="23" x2="42.5" y2="23"/>
	
		<linearGradient id="Path_740_1_" gradientUnits="userSpaceOnUse" x1="11.0517" y1="42.7568" x2="10.9417" y2="44.7048" gradientTransform="matrix(13.5 0 0 -1 -112.5 73)">
		<stop  offset="0" style="stop-color:#299BD7"/>
		<stop  offset="1" style="stop-color:#DE9822"/>
	</linearGradient>
	<path id="Path_740" class="st1" d="M29,29h13.5"/>
	<line id="Line_2020" class="st0" x1="29.5" y1="35" x2="42.5" y2="35"/>
	<line id="Line_2021" class="st0" x1="29.5" y1="41" x2="42.5" y2="41"/>
</g>
</svg>
