<svg xmlns="http://www.w3.org/2000/svg" width="220.215" height="115.844" viewBox="0 0 220.215 115.844">
    <defs>
        <clipPath id="62f64fhkga">
            <path style="fill:none" d="M0 0h192.488v91.362H0z"/>
        </clipPath>
        <clipPath id="dy7o5kxp8b">
            <path data-name="SVGID" d="M1438.738 225.6a55.168 55.168 0 0 0 55.169-55.169h-55.169z" transform="translate(-1438.738 -170.431)" style="stroke:#faa618;fill:none"/>
        </clipPath>
    </defs>
    <g data-name="Group 1808" transform="translate(-1280.201 -72.783)">
        <g data-name="Group 1804">
            <g data-name="Group 1803" style="clip-path:url(#62f64fhkga)" transform="translate(1280.201 85.078)">
                <circle data-name="Ellipse 591" cx="58.733" cy="58.733" r="58.733" transform="translate(40.793 -13.052)" style="stroke-linejoin:round;stroke:#fff;fill:none"/>
                <circle data-name="Ellipse 592" cx="71.784" cy="71.784" r="71.784" transform="translate(27.742 -26.103)" style="stroke-linejoin:round;stroke:#fff;fill:none"/>
                <circle data-name="Ellipse 593" cx="86.025" cy="86.025" r="86.025" transform="translate(13.501 -40.344)" style="stroke-linejoin:round;stroke:#fff;fill:none"/>
            </g>
        </g>
        <g data-name="Group 1805" transform="translate(1334.046 85.078)">
            <circle data-name="Ellipse 594" cx="45.681" cy="45.681" r="45.681" style="stroke-width:2px;stroke-linejoin:round;stroke:#fff;fill:none"/>
            <circle data-name="Ellipse 595" cx="29.366" cy="29.366" r="29.366" transform="translate(16.315 16.315)" style="stroke-width:2px;stroke-linejoin:round;stroke:#fff;fill:none"/>
            <circle data-name="Ellipse 596" cx="13.052" cy="13.052" r="13.052" transform="translate(32.629 32.629)" style="stroke:#008bce;stroke-linejoin:round;fill:none"/>
        </g>
        <circle data-name="Ellipse 597" cx="6.526" cy="6.526" r="6.526" transform="translate(1360.15 82.241)" style="fill:#fff;stroke-linejoin:round;stroke:#faa618"/>
        <circle data-name="Ellipse 598" cx="6.526" cy="6.526" r="6.526" transform="translate(1307.029 155.294)" style="fill:#fff;stroke-linejoin:round;stroke:#faa618"/>
        <path data-name="Path 801" d="M1417.46 229.067a79.914 79.914 0 0 0 79.914-79.913h-79.914z" transform="rotate(-45 1379.454 177.922)" style="stroke:#299bd7;fill:#fff;stroke-width:2px"/>
        <g data-name="Group 1807">
            <g data-name="Group 1806" transform="rotate(-45 857.868 -1624.822)" style="clip-path:url(#dy7o5kxp8b)">
                <circle data-name="Ellipse 600" cx="45.681" cy="45.681" r="45.681" transform="translate(-61.109 -61.109)" style="stroke-linejoin:round;stroke:#faa618;fill:none"/>
                <circle data-name="Ellipse 601" cx="58.733" cy="58.733" r="58.733" transform="translate(-74.161 -74.161)" style="stroke-linejoin:round;stroke:#faa618;fill:none"/>
                <circle data-name="Ellipse 602" cx="71.784" cy="71.784" r="71.784" transform="translate(-87.213 -87.213)" style="stroke-linejoin:round;stroke:#faa618;fill:none"/>
            </g>
        </g>
        <path data-name="Path 802" d="M1412.482 131.154a13.129 13.129 0 0 0 0 26.259h13.13v-13.13a13.13 13.13 0 0 0-13.13-13.129z" transform="rotate(-45 1379.873 177.1)" style="stroke:#299bd7;fill:#fff;stroke-width:2px;stroke-linejoin:round"/>
    </g>
</svg>
