<svg xmlns="http://www.w3.org/2000/svg" width="11.347" height="11.347" viewBox="0 0 11.347 11.347">
  <g id="Group_342" data-name="Group 342" transform="translate(-305.47 -61.327)">
    <line id="Line_495" data-name="Line 495" x2="15.047" transform="translate(305.823 72.32) rotate(-45)" fill="none" stroke="#f0f6eb" stroke-width="2"/>
    <line id="Line_523" data-name="Line 523" x2="15.047" transform="translate(316.463 72.32) rotate(-135)" fill="none" stroke="#f0f6eb" stroke-width="2"/>
  </g>
</svg>
