<svg xmlns="http://www.w3.org/2000/svg" width="28" height="13" viewBox="0 0 28 13">
  <g id="Group_1919" data-name="Group 1919" transform="translate(-504.074 -544.654)">
    <rect id="Rectangle_3914" data-name="Rectangle 3914" width="27" height="12" transform="translate(504.574 545.154)" fill="none" stroke="#008bce" stroke-linejoin="round" stroke-width="1"/>
    <line id="Line_3164" data-name="Line 3164" x2="11.457" transform="translate(508.505 549)" fill="none" stroke="#008bce" stroke-linejoin="round" stroke-width="1"/>
    <line id="Line_3165" data-name="Line 3165" x2="7" transform="translate(512.574 553.154)" fill="none" stroke="#008bce" stroke-linejoin="round" stroke-width="1"/>
    <rect id="Rectangle_3915" data-name="Rectangle 3915" width="5" height="4" transform="translate(523.574 549.154)" fill="none" stroke="#008bce" stroke-linejoin="round" stroke-width="1"/>
  </g>
</svg>
