<svg xmlns="http://www.w3.org/2000/svg" width="22.707" height="23.16" viewBox="0 0 22.707 23.16">
  <g id="Group_1677" data-name="Group 1677" transform="translate(-201.804 -319.107)">
    <circle id="Ellipse_484" data-name="Ellipse 484" cx="9" cy="9" r="9" transform="translate(202.804 320.107)" fill="none" stroke="#299bd7" stroke-linejoin="round" stroke-width="2"/>
    <line id="Line_2468" data-name="Line 2468" x2="5.77" y2="5.77" transform="translate(218.034 335.789)" fill="#299bd7" stroke="#299bd7" stroke-linejoin="round" stroke-width="2"/>
  </g>
</svg>
