<svg xmlns="http://www.w3.org/2000/svg" width="16.047" height="14.9" viewBox="0 0 16.047 14.9">
  <path id="Icon_ionic-ios-star" data-name="Icon ionic-ios-star" d="M17.688,8.533H12.419l-1.6-4.778a.58.58,0,0,0-1.089,0l-1.6,4.778h-5.3a.575.575,0,0,0-.573.573.421.421,0,0,0,.011.1.551.551,0,0,0,.24.4l4.33,3.052L5.169,17.491a.575.575,0,0,0,.2.645.554.554,0,0,0,.322.14.7.7,0,0,0,.358-.129l4.227-3.012L14.5,18.147a.671.671,0,0,0,.358.129.515.515,0,0,0,.319-.14.568.568,0,0,0,.2-.645l-1.662-4.832,4.295-3.08.1-.09a.548.548,0,0,0-.423-.956Z" transform="translate(-2.25 -3.375)" fill="#ffffff"/>
</svg>
