<svg xmlns="http://www.w3.org/2000/svg" width="50" height="11" viewBox="0 0 50 11">
    <g data-name="Group 2026" transform="translate(-664 -665)">
        <circle data-name="Ellipse 485" cx="5.5" cy="5.5" r="5.5" transform="translate(664 665)" style="fill:#9dd5f2"/>
        <ellipse data-name="Ellipse 486" cx="6" cy="5.5" rx="6" ry="5.5" transform="translate(684 665)" style="fill:#79c4ec"/>
        <circle data-name="Ellipse 487" cx="5.5" cy="5.5" r="5.5" transform="translate(703 665)" style="fill:#299bd7"/>
    </g>
</svg>
