<svg version="1.1" id="Layer_1" xmlns="http://www.w3.org/2000/svg" xmlns:xlink="http://www.w3.org/1999/xlink" x="0px" y="0px"
	 width="18" height="23" viewBox="0 0 17.4 22.8" style="enable-background:new 0 0 17.4 22.8;" xml:space="preserve">
<style type="text/css">
	.st0{fill:none;stroke:#008BCE;stroke-width:2;stroke-linejoin:round;}
</style>
<g id="Group_1127">
	<path id="Path_356" class="st0" d="M1.2,22.8c0-0.2,0-0.3,0-0.5c0-4.1,3.4-7.3,7.5-7.3c4.2,0,7.5,3.3,7.5,7.3c0,0.2,0,0.3,0,0.5"/>
	<ellipse id="Ellipse_340" class="st0" cx="8.7" cy="7.5" rx="5.7" ry="5.5"/>
</g>
</svg>
